Date	response
2019-08-01	0.0
2019-08-02	0.0
2019-08-03	0.0
2019-08-04	0.0
2019-08-05	0.0
2019-08-06	0.0
2019-08-07	0.0
2019-08-08	0.0
2019-08-09	2.85
2019-08-10	9.66
2019-08-11	0.35
2019-08-12	1.9
2019-08-13	3.56
2019-08-14	7.47
2019-08-15	19.45
2019-08-16	39.63
2019-08-17	30.52
2019-08-18	0.7
2019-08-19	15.4
2019-08-20	36.3
2019-08-21	29.44
2019-08-22	26.1
2019-08-23	16.31
2019-08-24	30.42
2019-08-25	2.48
2019-08-26	19.39
2019-08-27	0.38
2019-08-28	0.0
2019-08-29	0.0
2019-08-30	0.0
2019-08-31	0.0
2019-09-01	0.0
2019-09-02	0.0
2019-09-03	0.0
2019-09-04	0.0
2019-09-05	0.0
2019-09-06	0.0
2019-09-07	0.0
2019-09-08	0.0
2019-09-09	10.16
2019-09-10	35.37
2019-09-11	11.73
2019-09-12	19.06
2019-09-13	19.02
2019-09-14	8.93
2019-09-15	5.76
2019-09-16	26.59
2019-09-17	22.35
2019-09-18	44.82
2019-09-19	42.35
2019-09-20	24.51
2019-09-21	12.25
2019-09-22	3.45
2019-09-23	26.83
2019-09-24	35.24
2019-09-25	33.03
2019-09-26	41.5
2019-09-27	28.83
2019-09-28	8.9
2019-09-29	6.0
2019-09-30	16.88
2019-10-01	30.8
2019-10-02	24.68
2019-10-03	50.43
2019-10-04	21.43
2019-10-05	26.23
2019-10-06	6.24
2019-10-07	25.61
2019-10-08	14.74
